^C:\USERS\NICOLAS\DESKTOP\MT-PROJ\LIBS\SDL2-2.0.1\SDL2_IMAGE-2.0.0\SHOWIMAGE.C
C:\PROGRAM FILES (X86)\MICROSOFT VISUAL STUDIO 11.0\VC\BIN\X86_AMD64\1033\CLUI.DLL
C:\WINDOWS\GLOBALIZATION\SORTING\SORTDEFAULT.NLS
C:\WINDOWS\SYSTEM32\TZRES.DLL
C:\PROGRAM FILES (X86)\MICROSOFT VISUAL STUDIO 11.0\VC\INCLUDE\STDLIB.H
C:\PROGRAM FILES (X86)\MICROSOFT VISUAL STUDIO 11.0\VC\INCLUDE\CRTDEFS.H
C:\PROGRAM FILES (X86)\MICROSOFT VISUAL STUDIO 11.0\VC\INCLUDE\SAL.H
C:\PROGRAM FILES (X86)\MICROSOFT VISUAL STUDIO 11.0\VC\INCLUDE\CONCURRENCYSAL.H
C:\PROGRAM FILES (X86)\MICROSOFT VISUAL STUDIO 11.0\VC\INCLUDE\VADEFS.H
C:\PROGRAM FILES (X86)\MICROSOFT VISUAL STUDIO 11.0\VC\INCLUDE\LIMITS.H
C:\PROGRAM FILES (X86)\MICROSOFT VISUAL STUDIO 11.0\VC\INCLUDE\STDIO.H
C:\PROGRAM FILES (X86)\MICROSOFT VISUAL STUDIO 11.0\VC\INCLUDE\SWPRINTF.INL
C:\PROGRAM FILES (X86)\MICROSOFT VISUAL STUDIO 11.0\VC\INCLUDE\STRING.H
C:\USERS\NICOLAS\DESKTOP\MT-PROJ\LIBS\SDL2-2.0.1\INCLUDE\SDL.H
C:\USERS\NICOLAS\DESKTOP\MT-PROJ\LIBS\SDL2-2.0.1\INCLUDE\SDL_MAIN.H
C:\USERS\NICOLAS\DESKTOP\MT-PROJ\LIBS\SDL2-2.0.1\INCLUDE\SDL_STDINC.H
C:\USERS\NICOLAS\DESKTOP\MT-PROJ\LIBS\SDL2-2.0.1\INCLUDE\SDL_CONFIG.H
C:\USERS\NICOLAS\DESKTOP\MT-PROJ\LIBS\SDL2-2.0.1\INCLUDE\SDL_PLATFORM.H
C:\USERS\NICOLAS\DESKTOP\MT-PROJ\LIBS\SDL2-2.0.1\INCLUDE\BEGIN_CODE.H
C:\USERS\NICOLAS\DESKTOP\MT-PROJ\LIBS\SDL2-2.0.1\INCLUDE\CLOSE_CODE.H
C:\USERS\NICOLAS\DESKTOP\MT-PROJ\LIBS\SDL2-2.0.1\INCLUDE\SDL_CONFIG_WINDOWS.H
C:\PROGRAM FILES (X86)\MICROSOFT VISUAL STUDIO 11.0\VC\INCLUDE\STDDEF.H
C:\PROGRAM FILES (X86)\MICROSOFT VISUAL STUDIO 11.0\VC\INCLUDE\STDARG.H
C:\USERS\NICOLAS\DESKTOP\MT-PROJ\LIBS\SDL2-2.0.1\INCLUDE\SDL_ASSERT.H
C:\USERS\NICOLAS\DESKTOP\MT-PROJ\LIBS\SDL2-2.0.1\INCLUDE\SDL_ATOMIC.H
C:\PROGRAM FILES (X86)\MICROSOFT VISUAL STUDIO 11.0\VC\INCLUDE\INTRIN.H
C:\PROGRAM FILES (X86)\MICROSOFT VISUAL STUDIO 11.0\VC\INCLUDE\SETJMP.H
C:\PROGRAM FILES (X86)\MICROSOFT VISUAL STUDIO 11.0\VC\INCLUDE\IMMINTRIN.H
C:\PROGRAM FILES (X86)\MICROSOFT VISUAL STUDIO 11.0\VC\INCLUDE\WMMINTRIN.H
C:\PROGRAM FILES (X86)\MICROSOFT VISUAL STUDIO 11.0\VC\INCLUDE\NMMINTRIN.H
C:\PROGRAM FILES (X86)\MICROSOFT VISUAL STUDIO 11.0\VC\INCLUDE\SMMINTRIN.H
C:\PROGRAM FILES (X86)\MICROSOFT VISUAL STUDIO 11.0\VC\INCLUDE\TMMINTRIN.H
C:\PROGRAM FILES (X86)\MICROSOFT VISUAL STUDIO 11.0\VC\INCLUDE\PMMINTRIN.H
C:\PROGRAM FILES (X86)\MICROSOFT VISUAL STUDIO 11.0\VC\INCLUDE\EMMINTRIN.H
C:\PROGRAM FILES (X86)\MICROSOFT VISUAL STUDIO 11.0\VC\INCLUDE\XMMINTRIN.H
C:\PROGRAM FILES (X86)\MICROSOFT VISUAL STUDIO 11.0\VC\INCLUDE\MMINTRIN.H
C:\PROGRAM FILES (X86)\MICROSOFT VISUAL STUDIO 11.0\VC\INCLUDE\MALLOC.H
C:\PROGRAM FILES (X86)\MICROSOFT VISUAL STUDIO 11.0\VC\INCLUDE\AMMINTRIN.H
C:\USERS\NICOLAS\DESKTOP\MT-PROJ\LIBS\SDL2-2.0.1\INCLUDE\SDL_AUDIO.H
C:\USERS\NICOLAS\DESKTOP\MT-PROJ\LIBS\SDL2-2.0.1\INCLUDE\SDL_ERROR.H
C:\USERS\NICOLAS\DESKTOP\MT-PROJ\LIBS\SDL2-2.0.1\INCLUDE\SDL_ENDIAN.H
C:\USERS\NICOLAS\DESKTOP\MT-PROJ\LIBS\SDL2-2.0.1\INCLUDE\SDL_MUTEX.H
C:\USERS\NICOLAS\DESKTOP\MT-PROJ\LIBS\SDL2-2.0.1\INCLUDE\SDL_THREAD.H
C:\PROGRAM FILES (X86)\MICROSOFT VISUAL STUDIO 11.0\VC\INCLUDE\PROCESS.H
C:\USERS\NICOLAS\DESKTOP\MT-PROJ\LIBS\SDL2-2.0.1\INCLUDE\SDL_RWOPS.H
C:\USERS\NICOLAS\DESKTOP\MT-PROJ\LIBS\SDL2-2.0.1\INCLUDE\SDL_CLIPBOARD.H
C:\USERS\NICOLAS\DESKTOP\MT-PROJ\LIBS\SDL2-2.0.1\INCLUDE\SDL_CPUINFO.H
C:\USERS\NICOLAS\DESKTOP\MT-PROJ\LIBS\SDL2-2.0.1\INCLUDE\SDL_EVENTS.H
C:\USERS\NICOLAS\DESKTOP\MT-PROJ\LIBS\SDL2-2.0.1\INCLUDE\SDL_VIDEO.H
C:\USERS\NICOLAS\DESKTOP\MT-PROJ\LIBS\SDL2-2.0.1\INCLUDE\SDL_PIXELS.H
C:\USERS\NICOLAS\DESKTOP\MT-PROJ\LIBS\SDL2-2.0.1\INCLUDE\SDL_RECT.H
C:\USERS\NICOLAS\DESKTOP\MT-PROJ\LIBS\SDL2-2.0.1\INCLUDE\SDL_SURFACE.H
C:\USERS\NICOLAS\DESKTOP\MT-PROJ\LIBS\SDL2-2.0.1\INCLUDE\SDL_BLENDMODE.H
C:\USERS\NICOLAS\DESKTOP\MT-PROJ\LIBS\SDL2-2.0.1\INCLUDE\SDL_KEYBOARD.H
C:\USERS\NICOLAS\DESKTOP\MT-PROJ\LIBS\SDL2-2.0.1\INCLUDE\SDL_KEYCODE.H
C:\USERS\NICOLAS\DESKTOP\MT-PROJ\LIBS\SDL2-2.0.1\INCLUDE\SDL_SCANCODE.H
C:\USERS\NICOLAS\DESKTOP\MT-PROJ\LIBS\SDL2-2.0.1\INCLUDE\SDL_MOUSE.H
C:\USERS\NICOLAS\DESKTOP\MT-PROJ\LIBS\SDL2-2.0.1\INCLUDE\SDL_JOYSTICK.H
C:\USERS\NICOLAS\DESKTOP\MT-PROJ\LIBS\SDL2-2.0.1\INCLUDE\SDL_GAMECONTROLLER.H
C:\USERS\NICOLAS\DESKTOP\MT-PROJ\LIBS\SDL2-2.0.1\INCLUDE\SDL_QUIT.H
C:\USERS\NICOLAS\DESKTOP\MT-PROJ\LIBS\SDL2-2.0.1\INCLUDE\SDL_GESTURE.H
C:\USERS\NICOLAS\DESKTOP\MT-PROJ\LIBS\SDL2-2.0.1\INCLUDE\SDL_TOUCH.H
C:\USERS\NICOLAS\DESKTOP\MT-PROJ\LIBS\SDL2-2.0.1\INCLUDE\SDL_FILESYSTEM.H
C:\USERS\NICOLAS\DESKTOP\MT-PROJ\LIBS\SDL2-2.0.1\INCLUDE\SDL_HAPTIC.H
C:\USERS\NICOLAS\DESKTOP\MT-PROJ\LIBS\SDL2-2.0.1\INCLUDE\SDL_HINTS.H
C:\USERS\NICOLAS\DESKTOP\MT-PROJ\LIBS\SDL2-2.0.1\INCLUDE\SDL_LOADSO.H
C:\USERS\NICOLAS\DESKTOP\MT-PROJ\LIBS\SDL2-2.0.1\INCLUDE\SDL_LOG.H
C:\USERS\NICOLAS\DESKTOP\MT-PROJ\LIBS\SDL2-2.0.1\INCLUDE\SDL_MESSAGEBOX.H
C:\USERS\NICOLAS\DESKTOP\MT-PROJ\LIBS\SDL2-2.0.1\INCLUDE\SDL_POWER.H
C:\USERS\NICOLAS\DESKTOP\MT-PROJ\LIBS\SDL2-2.0.1\INCLUDE\SDL_RENDER.H
C:\USERS\NICOLAS\DESKTOP\MT-PROJ\LIBS\SDL2-2.0.1\INCLUDE\SDL_SYSTEM.H
C:\USERS\NICOLAS\DESKTOP\MT-PROJ\LIBS\SDL2-2.0.1\INCLUDE\SDL_TIMER.H
C:\USERS\NICOLAS\DESKTOP\MT-PROJ\LIBS\SDL2-2.0.1\INCLUDE\SDL_VERSION.H
C:\USERS\NICOLAS\DESKTOP\MT-PROJ\LIBS\SDL2-2.0.1\SDL2_IMAGE-2.0.0\SDL_IMAGE.H
